<?xml version="1.0" encoding="UTF-8" standalone="yes"?>
<IntuitResponse time="2017-04-20T23:24:00.814-07:00" xmlns="http://schema.intuit.com/finance/v3">
    <Fault type="SERVICE">
        <Error code="3100">
            <Message>message=ApplicationAuthorizationFailed; errorCode=003100; statusCode=403</Message>
            <Detail></Detail>
        </Error>
    </Fault>
</IntuitResponse>
